Second enrichment of enriched Results – EnrichGT
…
Access re-enriched data table

You can simple View(re_enrich@enriched_result) for the first slot.

re_enrich@enriched_result # Get the re-enrichment result table

# A tibble: 65 × 7
   Description                          ID    Count Cluster   PCT    Padj geneID
   <chr>                                <chr> <int> <chr>   <dbl>   <dbl> <chr> 
 1 synaptic transmission, glutamatergic GO:0…    18 Cluste…   3.9 1   e-6 ATP1A…
 2 regulation of synaptic transmission… GO:0…    15 Cluste…   3.2 1.20e-6 ATP1A…
 3 glutamate receptor signaling pathway GO:0…    12 Cluste…   2.6 1.10e-5 GRIA4…
 4 regulation of neuronal synaptic pla… GO:0…    12 Cluste…   2.6 1.20e-5 APOE,…
 5 ionotropic glutamate receptor signa… GO:0…     8 Cluste…   1.7 4.1 e-5 GRIA4…
 6 ligand-gated ion channel signaling … GO:1…     9 Cluste…   1.9 9.8 e-5 GRIA4…
 7 regulation of postsynaptic membrane… GO:0…    16 Cluste…   3.4 1.6 e-4 GABRD…
 8 regulation of membrane potential     GO:0…    30 Cluste…   6.5 2.5 e-4 AGT, …
 9 locomotory behavior                  GO:0…    19 Cluste…   4.1 2.5 e-4 ALK, …
10 transmission of nerve impulse        GO:0…    11 Cluste…   2.4 4.3 e-4 ATP1A…
# ℹ 55 more rows
…
