Clustering and viewing ORA results • EnrichGT
…
response to activity

GO:0014823

5
2.6
6.1e-02
SLC7A5, CDK1, ADIPOQ, PCK1, CRY2

Full enriched enriched (enrich^2) result is in
obj@enriched_result.

df1<-obj@enriched_result |> as_tibble()
df1
#> # A tibble: 34 × 7
#>    Description                         ID    Count Cluster   PCT     Padj geneID
#>    <chr>                               <chr> <int> <chr>   <dbl>    <dbl> <chr> 
#>  1 nuclear chromosome segregation      GO:0…    33 Cluste…    17 6.70e-18 CDCA8…
#>  2 chromosome segregation              GO:0…    37 Cluste…    19 6.70e-18 CDCA8…
#>  3 mitotic sister chromatid segregati… GO:0…    27 Cluste…    14 2.10e-17 CDCA8…
#>  4 sister chromatid segregation        GO:0…    29 Cluste…    15 2.20e-17 CDCA8…
#>  5 mitotic nuclear division            GO:0…    31 Cluste…    16 4.10e-17 CDCA8…
#>  6 nuclear division                    GO:0…    36 Cluste…    18 5.30e-17 CDCA8…
#>  7 organelle fission                   GO:0…    37 Cluste…    19 1.7 e-16 CDCA8…
#>  8 microtubule cytoskeleton organizat… GO:1…    23 Cluste…    12 1.9 e-14 CDCA8…
#>  9 chromosome organization             GO:0…    38 Cluste…    19 1.4 e-13 CDC45…
#> 10 cell division                       GO:0…    37 Cluste…    19 2.5 e-12 CDCA8…
#> # ℹ 24 more rows
…
write.csv(ego,"ego_enriched.csv")

res0<-read_csv("ego_enriched.csv")
#> New names:
#> Rows: 470 Columns: 10
#> ── Column specification
#> ──────────────────────────────────────────────────────── Delimiter: "," chr
#> (6): ...1, ID, Description, GeneRatio, BgRatio, geneID dbl (4): pvalue,
#> p.adjust, qvalue, Count
#> ℹ Use `spec()` to retrieve the full column specification for this data. ℹ
#> Specify the column types or set `show_col_types = FALSE` to quiet this message.
#> • `` -> `...1`
res0
#> # A tibble: 470 × 10
#>    ...1    ID    Description GeneRatio BgRatio   pvalue p.adjust   qvalue geneID
#>    <chr>   <chr> <chr>       <chr>     <chr>      <dbl>    <dbl>    <dbl> <chr> 
#>  1 GO:009… GO:0… nuclear ch… 33/196    236/11… 2.78e-21 6.69e-18 6.16e-18 CDCA8…
#>  2 GO:000… GO:0… chromosome… 37/196    316/11… 4.45e-21 6.69e-18 6.16e-18 CDCA8…
#>  3 GO:000… GO:0… mitotic si… 27/196    151/11… 2.10e-20 2.10e-17 1.94e-17 CDCA8…
#>  4 GO:000… GO:0… sister chr… 29/196    184/11… 2.92e-20 2.20e-17 2.02e-17 CDCA8…
#>  5 GO:014… GO:0… mitotic nu… 31/196    224/11… 6.84e-20 4.12e-17 3.79e-17 CDCA8…
#>  6 GO:000… GO:0… nuclear di… 36/196    325/11… 1.05e-19 5.29e-17 4.87e-17 CDCA8…
#>  7 GO:004… GO:0… organelle … 37/196    360/11… 3.98e-19 1.71e-16 1.57e-16 CDCA8…
#>  8 GO:190… GO:1… microtubul… 23/196    135/11… 5.01e-17 1.88e-14 1.73e-14 CDCA8…
#>  9 GO:005… GO:0… chromosome… 38/196    470/11… 4.33e-16 1.45e-13 1.33e-13 CDC45…
#> 10 GO:005… GO:0… cell divis… 37/196    487/11… 8.15e-15 2.45e-12 2.26e-12 CDCA8…
#> # ℹ 460 more rows
#> # ℹ 1 more variable: Count <dbl>
…
